G01 X11. Y49.5 C0. F700

G01 A0.

G01 B1.5.

D2

G01 C-6.

G04 P10

M301

G04 P20

M330

G04 P5

G01 C0.

G01 Y40.5 C0. F700

G01 A0.

G01 B1.5.

D2

G01 C-6.

G04 P10

M301

G04 P20

M330

G04 P5

G01 C0.

G01 Y40.5 C0. F700

G01 A0.

G01 B1.5.

D2

G01 C-6.

G04 P10

M301

G04 P20

M330

G04 P5

G01 C0.

G01 Y31.5 C0. F700

G01 A0.

G01 B1.5.

D2

G01 C-6.

G04 P10

M301

G04 P20

M330

G04 P5

G01 C0.

G01 Y22.5 C0. F700

G01 A0.

G01 B1.5.

D2

G01 C-6.

G04 P10

M301

G04 P20

M330

G04 P5

G01 C0.

G01 Y13.5 C0. F700

G01 A0.

G01 B1.5.

D2

G01 C-6.

G04 P10

M301

G04 P20

M330

G04 P5

G01 C0.

G01 Y4.5 C0. F700

G01 A0.

G01 B1.5.

D2

G01 C-6.

G04 P10

M301

G04 P20

M330

G04 P5

G01 C0.

G01 Y-4.5 C0. F700

G01 A0.

G01 B1.5.

D2

G01 C-6.

G04 P10

M301

G04 P20

M330

G04 P5

G01 C0.

G01 Y-13.5 C0. F700

G01 A0.

G01 B1.5.

D2

G01 C-6.

G04 P10

M301

G04 P20

M330

G04 P5

G01 C0.

G01 Y-22.5 C0. F700

G01 A0.

G01 B1.5.

D2

G01 C-6.

G04 P10

M301

G04 P20

M330

G04 P5

G01 C0.

G01 Y-31.5 C0. F700

G01 A0.

G01 B1.5.

D2

G01 C-6.

G04 P10

M301

G04 P20

M330

G04 P5

G01 C0.

G01 Y-40.5 C0. F700

G01 A0.

G01 B1.5.

D2

G01 C-6.

G04 P10

M301

G04 P20

M330

G04 P5

G01 C0.

G01 Y-49.5 C0. F700

G01 A0.

G01 B1.5.

D2

G01 C-6.

G04 P10

M301

G04 P20

M330

G04 P5

G01 C0.

G01 X74. Y-49.5 C0. F700

G01 A0.

G01 B1.5.

D2

G01 C-6.

G04 P10

M301

G04 P20

M330

G04 P5

G01 C0.

G01 Y-40.5 C0. F700

G01 A0.

G01 B1.5.

D2

G01 C-6.

G04 P10

M301

G04 P20

M330

G04 P5

G01 C0.

G01 Y-31.5 C0. F700

G01 A0.

G01 B1.5.

D2

G01 C-6.

G04 P10

M301

G04 P20

M330

G04 P5

G01 C0.

G01 Y-22.5 C0. F700

G01 A0.

G01 B1.5.

D2

G01 C-6.

G04 P10

M301

G04 P20

M330

G04 P5

G01 C0.

G01 Y-13.5 C0. F700

G01 A0.

G01 B1.5.

D2

G01 C-6.

G04 P10

M301

G04 P20

M330

G04 P5

G01 C0.

G01 Y-4.5 C0. F700

G01 A0.

G01 B1.5.

D2

G01 C-6.

G04 P10

M301

G04 P20

M330

G04 P5

G01 C0.

G01 Y4.5 C0. F700

G01 A0.

G01 B1.5.

D2

G01 C-6.

G04 P10

M301

G04 P20

M330

G04 P5

G01 C0.

G01 Y13.5 C0. F700

G01 A0.

G01 B1.5.

D2

G01 C-6.

G04 P10

M301

G04 P20

M330

G04 P5

G01 C0.

G01 Y22.5 C0. F700

G01 A0.

G01 B1.5.

D2

G01 C-6.

G04 P10

M301

G04 P20

M330

G04 P5

G01 C0.

G01 Y31.5 C0. F700

G01 A0.

G01 B1.5.

D2

G01 C-6.

G04 P10

M301

G04 P20

M330

G04 P5

G01 C0.

G01 Y40.5 C0. F700

G01 A0.

G01 B1.5.

D2

G01 C-6.

G04 P10

M301

G04 P20

M330

G04 P5

G01 C0.

G01 Y49.5 C0. F700

G01 A0.

G01 B1.5.

D2

G01 C-6.

G04 P10

M301

G04 P20

M330

G04 P5

G01 C0.



G01 X29. Y49.5 C0.

G01 A0.

G01 B1.5.

D2

G01 C-6.

G04 P10

M301

G04 P20

M330

G04 P5

G01 C0.

G01 X38. Y49.5 C0.

G01 A0.

G01 B1.5.

D2

G01 C-6.

G04 P10

M301

G04 P20

M330

G04 P5

G01 C0.

G01 X47. Y40.5 C0.

G01 A0.

G01 B1.5.

D2

G01 C-6.

G04 P10

M301

G04 P20

M330

G04 P5

G01 C0.

G01 X56. Y31.5 C0.

G01 A0.

G01 B1.5.

D2

G01 C-6.

G04 P10

M301

G04 P20

M330

G04 P5

G01 C0.

G01 X65. Y22.5 C0.

G01 A0.

G01 B1.5.

D2

G01 C-6.

G04 P10

M301

G04 P20

M330

G04 P5

G01 C0.

G01 X56. Y22.5 C0.

G01 A0.

G01 B1.5.

D2

G01 C-6.

G04 P10

M301

G04 P20

M330

G04 P5

G01 C0.

G01 X47. Y22.5 C0.

G01 A0.

G01 B1.5.

D2

G01 C-6.

G04 P10

M301

G04 P20

M330

G04 P5

G01 C0.

G01 X38. Y22.5 C0.

G01 A0.

G01 B1.5.

D2

G01 C-6.

G04 P10

M301

G04 P20

M330

G04 P5

G01 C0.

G01 X29. Y22.5 C0.

G01 A0.

G01 B1.5.

D2

G01 C-6.

G04 P10

M301

G04 P20

M330

G04 P5

G01 C0.

G01 X20. Y22.5 C0.

G01 A0.

G01 B1.5.

D2

G01 C-6.

G04 P10

M301

G04 P20

M330

G04 P5

G01 C0.

G01 X29. Y40.5 C0.

G01 A0.

G01 B1.5.

D2

G01 C-6.

G04 P10

M301

G04 P20

M330

G04 P5

G01 C0.

G01 X29. Y31.5 C0.

G01 A0.

G01 B1.5.

D2

G01 C-6.

G04 P10

M301

G04 P20

M330

G04 P5

G01 C0.

G01 X29. Y13.5 C0.

G01 A0.

G01 B1.5.

D2

G01 C-6.

G04 P10

M301

G04 P20

M330

G04 P5

G01 C0.



G01 X65. Y4.5 C0.

G01 A0.

G01 B1.5.

D2

G01 C-6.

G04 P10

M301

G04 P20

M330

G04 P5

G01 C0.

G01 X65. Y-4.5 C0.

G01 A0.

G01 B1.5.

D2

G01 C-6.

G04 P10

M301

G04 P20

M330

G04 P5

G01 C0.

G01 X65. Y-13.5 C0.

G01 A0.

G01 B1.5.

D2

G01 C-6.

G04 P10

M301

G04 P20

M330

G04 P5

G01 C0.

G01 X56. Y-22.5 C0.

G01 A0.

G01 B1.5.

D2

G01 C-6.

G04 P10

M301

G04 P20

M330

G04 P5

G01 C0.

G01 X47. Y22.5 C0.

G01 A0.

G01 B1.5.

D2

G01 C-6.

G04 P10

M301

G04 P20

M330

G04 P5

G01 C0.

G01 X38. Y-22.5 C0.

G01 A0.

G01 B1.5.

D2

G01 C-6.

G04 P10

M301

G04 P20

M330

G04 P5

G01 C0.

G01 X29. Y-22.5 C0.

G01 A0.

G01 B1.5.

D2

G01 C-6.

G04 P10

M301

G04 P20

M330

G04 P5

G01 C0.

G01 X20. Y-13.5 C0.

G01 A0.

G01 B1.5.

D2

G01 C-6.

G04 P10

M301

G04 P20

M330

G04 P5

G01 C0.

G01 X20. Y-4.5 C0.

G01 A0.

G01 B1.5.

D2

G01 C-6.

G04 P10

M301

G04 P20

M330

G04 P5

G01 C0.

G01 X20. Y4.5 C0.

G01 A0.

G01 B1.5.

D2

G01 C-6.

G04 P10

M301

G04 P20

M330

G04 P5

G01 C0.

G01 X29. Y4.5 C0.

G01 A0.

G01 B1.5.

D2

G01 C-6.

G04 P10

M301

G04 P20

M330

G04 P5

G01 C0.

G01 X38. Y4.5 C0.

G01 A0.

G01 B1.5.

D2

G01 C-6.

G04 P10

M301

G04 P20

M330

G04 P5

G01 C0.

G01 X47. Y4.5 C0.

G01 A0.

G01 B1.5.

D2

G01 C-6.

G04 P10

M301

G04 P20

M330

G04 P5

G01 C0.

G01 X56. Y4.5 C0.

G01 A0.

G01 B1.5.

D2

G01 C-6.

G04 P10

M301

G04 P20

M330

G04 P5

G01 C0.



G01 X65. Y-49.5 C0. F700

G01 A0.

G01 B1.5.

D2

G01 C-6.

G04 P10

M301

G04 P20

M330

G04 P5

G01 C0.

G01 X65. Y-40.5 C0. F700

G01 A0.

G01 B1.5.

D2

G01 C-6.

G04 P10

M301

G04 P20

M330

G04 P5

G01 C0.

G01 X65. Y-31.5 C0.

G01 A0.

G01 B1.5.

D2

G01 C-6.

G04 P10

M301

G04 P20

M330

G04 P5

G01 C0.

G01 X56. Y-31.5 C0.

G01 A0.

G01 B1.5.

D2

G01 C-6.

G04 P10

M301

G04 P20

M330

G04 P5

G01 C0.

G01 X47. Y-31.5 C0.

G01 A0.

G01 B1.5.

D2

G01 C-6.

G04 P10

M301

G04 P20

M330

G04 P5

G01 C0.

G01 X38. Y-31.5 C0.

G01 A0.

G01 B1.5.

D2

G01 C-6.

G04 P10

M301

G04 P20

M330

G04 P5

G01 C0.

G01 X29. Y-31.5 C0.

G01 A0.

G01 B1.5.

D2

G01 C-6.

G04 P10

M301

G04 P20

M330

G04 P5

G01 C0.

G01 X20. Y-31.5 C0.

G01 A0.

G01 B1.5.

D2

G01 C-6.

G04 P10

M301

G04 P20

M330

G04 P5

G01 C0.

G01 X20. Y-40.5 C0.

G01 A0.

G01 B1.5.

D2

G01 C-6.

G04 P10

M301

G04 P20

M330

G04 P5

G01 C0.

G01 X20. Y-49.5 C0.

G01 A0.

G01 B1.5.

D2

G01 C-6.

G04 P10

M301

G04 P20

M330

G04 P5

G01 C0.

G01 X29. Y-49.5 C0.

G01 A0.

G01 B1.5.

D2

G01 C-6.

G04 P10

M301

G04 P20

M330

G04 P5

G01 C0.

G01 X38. Y-49.5 C0.

G01 A0.

G01 B1.5.

D2

G01 C-6.

G04 P10

M301

G04 P20

M330

G04 P5

G01 C0.

G01 X47. Y-49.5 C0.

G01 A0.

G01 B1.5.

D2

G01 C-6.

G04 P10

M301

G04 P20

M330

G04 P5

G01 C0.

G01 X47. Y-40.5 C0.

G01 A0.

G01 B1.5.

D2

G01 C-6.

G04 P10

M301

G04 P20

M330

G04 P5

G01 C0.

G01 B0.



G00 X0. Y0. Z0. A0. F700



