;FLAVOR:Marlin
;TIME:13
;Filament used: 0.000633626m, 0m, 0m, 0m, 0m, 0m
;Layer height: 0.1
;MINX:-0.913
;MINY:-0.906
;MINZ:0.3
;MAXX:0.897
;MAXY:0.906
;MAXZ:0.5
;Generated with Cura_SteamEngine master
D1

;(*** front of start-gcode for Rokit Healthcare ***)
M74 ; enable IO
M78; light ON
M176 ; mini comp ON
M72; motor drive on
G21; set units to mm
; Axis Home
M29 Y
M29 X
M29 Z
M29 C
M29 A
G78 B50.
M29 B
M303 5 5 5 0.5 5 4
M304 0.3 0.3 0.3 0.3 0.3 0.3
M305 0 0 0 0 0 0
M306 90 90 90 90 90 90
M307 90 90 90 90 90 90
M308 30 30 30 30 30 30 30
M311
M312
M313
M314
M315
M316
M317
M318
M109
;(*** back of start-gcode ***)

G92 E0
G92 E0
G1 F1500 J-6.5
;LAYER_COUNT:3
G0 A0. F1500
G0 B9.0
;LAYER:0
M107
;MESH:well_plate_test_model.stl
G0 F600 X0.08 Y-0.253 C-20.0
;TYPE:WALL-INNER
G1 F1500 J0
M301 ;SHOT
G1 F300 X0.197 Y-0.187 J0.00268
G1 X0.257 Y-0.056 J0.00556
G1 X0.257 Y0.058 J0.00783
G1 X0.201 Y0.178 J0.01047
G1 X0.17 Y0.208 J0.01133
G1 X0.041 Y0.258 J0.0141
G1 X-0.073 Y0.253 J0.01637
G1 X-0.167 Y0.203 J0.0185
G1 X-0.262 Y0.077 J0.02165
G1 X-0.267 Y-0.009 J0.02337
G1 X-0.223 Y-0.139 J0.0261
G1 X-0.151 Y-0.216 J0.02821
G1 X-0.042 Y-0.258 J0.03054
G1 X0.08 Y-0.253 J0.03298
M330 ;STOP
G0 F600 X0.122 Y-0.411
M301 ;SHOT
G1 F300 X0.282 Y-0.328 J0.03657
G1 X0.33 Y-0.279 J0.03794
G1 X0.417 Y-0.091 J0.04208
G1 X0.417 Y0.092 J0.04573
G1 X0.333 Y0.274 J0.04973
G1 X0.256 Y0.346 J0.05183
G1 X0.068 Y0.42 J0.05586
G1 X-0.116 Y0.411 J0.05954
G1 X-0.273 Y0.327 J0.06309
G1 X-0.408 Y0.149 J0.06755
G1 X-0.421 Y0.112 J0.06833
G1 X-0.428 Y-0.03 J0.07117
G1 X-0.364 Y-0.223 J0.07523
G1 X-0.242 Y-0.352 J0.07877
G1 X-0.068 Y-0.42 J0.0825
G1 X0.122 Y-0.411 J0.0863
M330 ;STOP
G0 F600 X0.163 Y-0.569
M301 ;SHOT
G1 F300 X0.378 Y-0.458 J0.09113
G1 X0.463 Y-0.372 J0.09354
G1 X0.577 Y-0.126 J0.09895
G1 X0.577 Y0.126 J0.10398
G1 X0.465 Y0.369 J0.10932
G1 X0.343 Y0.484 J0.11266
G1 X0.095 Y0.582 J0.11798
G1 X-0.159 Y0.569 J0.12306
G1 X-0.381 Y0.451 J0.12808
G1 X-0.55 Y0.228 J0.13366
G1 X-0.58 Y0.141 J0.1355
G1 X-0.59 Y-0.052 J0.13935
G1 X-0.505 Y-0.307 J0.14472
G1 X-0.333 Y-0.488 J0.1497
G1 X-0.095 Y-0.582 J0.15481
G1 X0.163 Y-0.569 J0.15996
M330 ;STOP
G0 F600 X0.205 Y-0.727
M301 ;SHOT
G1 F300 X0.476 Y-0.587 J0.16605
G1 X0.595 Y-0.467 J0.16942
G1 X0.737 Y-0.161 J0.17615
G1 X0.737 Y0.161 J0.18258
G1 X0.597 Y0.464 J0.18924
G1 X0.43 Y0.622 J0.19383
G1 X0.122 Y0.744 J0.20044
G1 X-0.202 Y0.727 J0.20692
G1 X-0.487 Y0.575 J0.21336
G1 X-0.693 Y0.304 J0.22015
G1 X-0.739 Y0.17 J0.22298
G1 X-0.751 Y-0.075 J0.22788
G1 X-0.646 Y-0.39 J0.2345
G1 X-0.424 Y-0.624 J0.24094
G1 X-0.122 Y-0.744 J0.24742
G1 X0.205 Y-0.727 J0.25396
M330 ;STOP
G0 F600 X0.247 Y-0.885
;TYPE:WALL-OUTER
M301 ;SHOT
G1 F300 X0.572 Y-0.717 J0.26126
G1 X0.728 Y-0.56 J0.26568
G1 X0.897 Y-0.196 J0.27369
G1 X0.897 Y0.196 J0.28151
G1 X0.729 Y0.559 J0.28949
G1 X0.517 Y0.76 J0.29532
G1 X0.149 Y0.906 J0.30322
G1 X-0.245 Y0.885 J0.3111
G1 X-0.593 Y0.699 J0.31897
G1 X-0.836 Y0.381 J0.32696
G1 X-0.898 Y0.199 J0.33079
G1 X-0.913 Y-0.097 J0.33671
G1 X-0.787 Y-0.474 J0.34464
G1 X-0.515 Y-0.76 J0.35252
G1 X-0.149 Y-0.906 J0.36038
G1 X0.247 Y-0.885 J0.36829
M330 ;STOP
G0 F600 X0.318 Y-0.849
G0 X0.067 Y-0.159
;TYPE:SKIN
M301 ;SHOT
G1 F300 X0.154 Y-0.072 J0.36952
M330 ;STOP
G0 F600 X0.164 Y0.05
M301 ;SHOT
G1 F300 X-0.048 Y-0.161 J0.37251
M330 ;STOP
G0 F600 X-0.12 Y-0.12
M301 ;SHOT
G1 F300 X0.127 Y0.127 J0.37599
M330 ;STOP
G0 F600 X0.047 Y0.16
M301 ;SHOT
G1 F300 X-0.161 Y-0.048 J0.37893
M330 ;STOP
G0 F600 X-0.161 Y0.064
M301 ;SHOT
G1 F300 X-0.074 Y0.152 J0.38016
;MESH:NONMESH
M330 ;STOP
G0 F600 X-0.074 Y0.152 C-19.9
G0 X0.085 Y-0.253
;TIME_ELAPSED:7.443194
;UVM172; UV ON
G4 P5000
M173; UV OFF

;LAYER:1
;TYPE:WALL-INNER
;MESH:well_plate_test_model.stl
M301 ;SHOT
G1 F450 X0.15 Y-0.221 J0.38064
G1 X0.224 Y-0.141 J0.38137
G1 X0.257 Y-0.067 J0.38191
G1 X0.257 Y0.058 J0.38274
G1 X0.208 Y0.163 J0.38351
G1 X0.135 Y0.226 J0.38415
G1 X0.049 Y0.258 J0.38476
G1 X-0.074 Y0.253 J0.38558
G1 X-0.169 Y0.202 J0.3863
G1 X-0.258 Y0.086 J0.38727
G1 X-0.26 Y-0.051 J0.38818
G1 X-0.232 Y-0.13 J0.38874
G1 X-0.151 Y-0.216 J0.38953
G1 X-0.042 Y-0.258 J0.3903
G1 X0.085 Y-0.253 J0.39115
M330 ;STOP
G0 F600 X0.125 Y-0.411
M301 ;SHOT
G1 F450 X0.246 Y-0.352 J0.39204
G1 X0.359 Y-0.231 J0.39314
G1 X0.417 Y-0.1 J0.3941
G1 X0.417 Y0.092 J0.39537
G1 X0.339 Y0.261 J0.39661
G1 X0.216 Y0.367 J0.39769
G1 X0.074 Y0.42 J0.3987
G1 X-0.116 Y0.411 J0.39997
G1 X-0.275 Y0.327 J0.40116
G1 X-0.404 Y0.157 J0.40258
G1 X-0.417 Y0.116 J0.40287
G1 X-0.421 Y-0.076 J0.40415
G1 X-0.37 Y-0.217 J0.40514
G1 X-0.242 Y-0.352 J0.40638
G1 X-0.068 Y-0.42 J0.40762
G1 X0.125 Y-0.411 J0.40891
M330 ;STOP
G0 F600 X0.166 Y-0.569
M301 ;SHOT
G1 F450 X0.342 Y-0.483 J0.41021
G1 X0.494 Y-0.321 J0.41169
G1 X0.577 Y-0.133 J0.41306
G1 X0.577 Y0.126 J0.41478
G1 X0.469 Y0.36 J0.41649
G1 X0.299 Y0.507 J0.41799
G1 X0.099 Y0.582 J0.41941
G1 X-0.159 Y0.569 J0.42113
G1 X-0.381 Y0.451 J0.4228
G1 X-0.548 Y0.231 J0.42464
G1 X-0.577 Y0.144 J0.42525
G1 X-0.581 Y-0.101 J0.42688
G1 X-0.508 Y-0.303 J0.42831
G1 X-0.333 Y-0.488 J0.43
G1 X-0.095 Y-0.582 J0.4317
G1 X0.166 Y-0.569 J0.43344
M330 ;STOP
G0 F600 X0.207 Y-0.727
M301 ;SHOT
G1 F450 X0.44 Y-0.613 J0.43517
G1 X0.628 Y-0.413 J0.43699
G1 X0.737 Y-0.166 J0.43879
G1 X0.737 Y0.161 J0.44096
G1 X0.599 Y0.459 J0.44315
G1 X0.382 Y0.647 J0.44506
G1 X0.124 Y0.744 J0.44689
G1 X-0.202 Y0.727 J0.44906
G1 X-0.487 Y0.575 J0.45121
G1 X-0.692 Y0.306 J0.45346
G1 X-0.737 Y0.172 J0.4544
G1 X-0.741 Y-0.129 J0.4564
G1 X-0.648 Y-0.388 J0.45823
G1 X-0.424 Y-0.624 J0.4604
G1 X-0.122 Y-0.744 J0.46256
G1 X0.207 Y-0.727 J0.46475
M330 ;STOP
G0 F600 X0.248 Y-0.885
;TYPE:WALL-OUTER
M301 ;SHOT
G1 F300 X0.538 Y-0.743 J0.4669
G1 X0.762 Y-0.505 J0.46907
G1 X0.897 Y-0.199 J0.4713
G1 X0.897 Y0.196 J0.47393
G1 X0.729 Y0.558 J0.47658
G1 X0.465 Y0.787 J0.47891
G1 X0.15 Y0.906 J0.48115
G1 X-0.245 Y0.885 J0.48378
G1 X-0.593 Y0.699 J0.4864
G1 X-0.836 Y0.381 J0.48906
G1 X-0.897 Y0.2 J0.49034
G1 X-0.901 Y-0.157 J0.49271
G1 X-0.788 Y-0.473 J0.49494
G1 X-0.515 Y-0.76 J0.49758
G1 X-0.149 Y-0.906 J0.5002
G1 X0.248 Y-0.885 J0.50284
M330 ;STOP
G0 F600 X0.32 Y-0.85
G0 X0.053 Y-0.166
;TYPE:SKIN
M301 ;SHOT
G1 F300 X-0.169 Y0.056 J0.50389
M330 ;STOP
G0 F600 X-0.12 Y0.12
M301 ;SHOT
G1 F300 X0.122 Y-0.122 J0.50503
M330 ;STOP
G0 F600 X0.166 Y-0.053
M301 ;SHOT
G1 F300 X-0.052 Y0.165 J0.50605
M330 ;STOP
G0 F600 X0.111 Y0.114
M301 ;SHOT
G1 F300 X-0.117 Y-0.108 J0.50685
M330 ;STOP
G0 F600 X-0.161 Y-0.065
;MESH:NONMESH
G0 X-0.161 Y-0.065 C-19.8
G0 X0.089 Y-0.252
;TIME_ELAPSED:10.820864
;LAYER:2
;TYPE:WALL-INNER
;MESH:well_plate_test_model.stl
M301 ;SHOT
G1 X0.148 Y-0.225 J0.50728
G1 X0.21 Y-0.163 J0.50786
G1 X0.257 Y-0.061 J0.50861
G1 X0.257 Y0.057 J0.5094
G1 X0.204 Y0.172 J0.51024
G1 X0.155 Y0.217 J0.51068
G1 X0.048 Y0.258 J0.51144
G1 X-0.074 Y0.253 J0.51226
G1 X-0.169 Y0.202 J0.51297
G1 X-0.261 Y0.079 J0.51399
G1 X-0.265 Y-0.023 J0.51467
G1 X-0.227 Y-0.133 J0.51545
G1 X-0.149 Y-0.216 J0.51621
G1 X-0.041 Y-0.258 J0.51698
G1 X0.089 Y-0.252 J0.51784
M330 ;STOP
G0 X0.128 Y-0.411
M301 ;SHOT
G1 X0.243 Y-0.356 J0.51869
G1 X0.342 Y-0.258 J0.51962
G1 X0.417 Y-0.095 J0.52081
G1 X0.417 Y0.091 J0.52205
G1 X0.336 Y0.268 J0.52334
G1 X0.241 Y0.355 J0.5242
G1 X0.074 Y0.42 J0.52539
G1 X-0.116 Y0.411 J0.52666
G1 X-0.275 Y0.327 J0.52785
G1 X-0.404 Y0.157 J0.52927
G1 X-0.42 Y0.109 J0.52961
G1 X-0.426 Y-0.046 J0.53064
G1 X-0.367 Y-0.218 J0.53185
G1 X-0.24 Y-0.352 J0.53308
G1 X-0.068 Y-0.42 J0.53431
G1 X0.128 Y-0.411 J0.53561
M330 ;STOP
G0 X0.168 Y-0.569
M301 ;SHOT
G1 X0.337 Y-0.489 J0.53686
G1 X0.474 Y-0.353 J0.53814
G1 X0.577 Y-0.129 J0.53978
G1 X0.577 Y0.126 J0.54148
G1 X0.467 Y0.364 J0.54322
G1 X0.327 Y0.493 J0.54449
G1 X0.099 Y0.582 J0.54612
G1 X-0.159 Y0.569 J0.54784
G1 X-0.381 Y0.451 J0.54951
G1 X-0.548 Y0.231 J0.55135
G1 X-0.579 Y0.139 J0.55199
G1 X-0.587 Y-0.069 J0.55338
G1 X-0.506 Y-0.304 J0.55503
G1 X-0.333 Y-0.488 J0.55671
G1 X-0.095 Y-0.582 J0.55841
G1 X0.168 Y-0.569 J0.56016
M330 ;STOP
G0 X0.209 Y-0.727
M301 ;SHOT
G1 X0.428 Y-0.623 J0.56178
G1 X0.607 Y-0.446 J0.56345
G1 X0.737 Y-0.163 J0.56552
G1 X0.737 Y0.161 J0.56768
G1 X0.598 Y0.461 J0.56988
G1 X0.413 Y0.631 J0.57155
G1 X0.125 Y0.744 J0.57361
G1 X-0.202 Y0.727 J0.57578
G1 X-0.487 Y0.575 J0.57793
G1 X-0.692 Y0.306 J0.58018
G1 X-0.738 Y0.169 J0.58114
G1 X-0.748 Y-0.092 J0.58288
G1 X-0.646 Y-0.389 J0.58497
G1 X-0.424 Y-0.624 J0.58712
G1 X-0.122 Y-0.744 J0.58928
G1 X0.209 Y-0.727 J0.59149
M330 ;STOP
G0 X0.249 Y-0.885
;TYPE:WALL-OUTER
M301 ;SHOT
G1 F300 X0.522 Y-0.756 J0.5935
G1 X0.739 Y-0.541 J0.59553
G1 X0.897 Y-0.197 J0.59805
G1 X0.897 Y0.196 J0.60066
G1 X0.729 Y0.558 J0.60331
G1 X0.499 Y0.769 J0.60539
G1 X0.15 Y0.906 J0.60788
G1 X-0.245 Y0.885 J0.61052
G1 X-0.593 Y0.699 J0.61314
G1 X-0.836 Y0.381 J0.6158
G1 X-0.897 Y0.199 J0.61708
G1 X-0.909 Y-0.115 J0.61917
G1 X-0.786 Y-0.474 J0.62169
G1 X-0.515 Y-0.76 J0.62432
G1 X-0.149 Y-0.906 J0.62694
G1 X0.249 Y-0.885 J0.62959
M330 ;STOP
G0 F600 X0.321 Y-0.851
G0 X0.06 Y-0.165
;TYPE:SKIN
M301 ;SHOT
G1 F300 X0.157 Y-0.068 J0.63004
M330 ;STOP
G0 F600 X0.164 Y0.05
M301 ;SHOT
G1 F300 X-0.047 Y-0.16 J0.63103
M330 ;STOP
G0 F600 X-0.12 Y-0.12
M301 ;SHOT
G1 F300 X0.125 Y0.125 J0.63219
M330 ;STOP
G0 F600 X0.049 Y0.162
M301 ;SHOT
G1 F300 X-0.163 Y-0.05 J0.63318
M330 ;STOP
G0 F600 X-0.166 Y0.06
M301 ;SHOT
G1 F300 X-0.072 Y0.154 J0.63363
;TIME_ELAPSED:13.671883
G1 F1500 J-5.86637
;(*** front of end-gcode for Rokit Healthcare ****)
G0 B0.
G0 A0.
G0 X0. Y0. C0. Z0.
M140 S0 ;Turn-off bed
M75 ;IO dis 
M79 ; light OFF
M177 ;comp off
M73; motor drive off
;(*** rear of end-gcode ***)
M82 ;absolute extrusion mode
M104 S0
;End of Gcode
